
CREATE OR REPLACE PROCEDURE WTIC.P_TABLE_LOGBASE_LOGMIN(cCodiceSistema IN VARCHAR2, dDataEmiInizio IN DATE, dDataEmiFine IN DATE, cFlagStorico IN VARCHAR2, nMIN_LOG_ID IN NUMBER, logCUR OUT SYS_REFCURSOR)
IS
        dInizio DATE;
        dTermin DATE;
BEGIN
        dInizio := TRUNC(dDataEmiInizio);
        dTermin := TRUNC(dDataEmiFine);
        nMAX_LOG_ID := 0;
        IF (cFlagStorico <> 'TRUE') THEN
                OPEN logCUR FOR
                SELECT * FROM 
                (
                        SELECT T_LOG.* FROM WTIC.VR_LOGTRANS T_LOG WHERE T_LOG.CODICE_SISTEMA = cCodiceSistema AND 
                        TRUNC(T_LOG.DATAORA_EMISSIONE_ANNULLAMENTO) >= TRUNC(dInizio) AND TRUNC(T_LOG.DATAORA_EMISSIONE_ANNULLAMENTO) <= TRUNC(dTermin)
                        AND T_LOG.LOG_ID >= nMIN_LOG_ID
                )
                ORDER BY DATA_EMISSIONE_ANNULLAMENTO, CODICE_SISTEMA, DATAORA_EMISSIONE_ANNULLAMENTO, CODICE_FISCALE_TITOLARE, CODICE_FISCALE_ORGANIZZATORE, DECODE(TITOLO_ABBONAMENTO, 'T', 1, 2),
                         DECODE(TITOLO_ABBONAMENTO, 'T', DATA_EVENTO, NULL), DECODE(TITOLO_ABBONAMENTO, 'T', CODICE_LOCALE, RPAD(' ',13,' ')), DECODE(TITOLO_ABBONAMENTO, 'T', ORA_EVENTO, RPAD(' ', 4,' ')),
                         DECODE(TITOLO_ABBONAMENTO, 'T', TIPO_EVENTO, RPAD(' ', 2,' ')), DECODE(TITOLO_ABBONAMENTO, 'T', TITOLO_EVENTO, RPAD(' ',40,' ')), DECODE(TITOLO_IVA_PREASSOLTA, 'N', 1, 'F', 2, 'B', 3),
                         ORDINE_DI_POSTO, TIPO_TITOLO, DECODE(ANNULLATO, ' ', 1, 2), DECODE(TITOLO_ABBONAMENTO, 'A', CODICE_ABBONAMENTO, RPAD(' ',8,' ')), DECODE(TITOLO_ABBONAMENTO, 'A', NUM_PROG_ABBONAMENTO, 0), IDVEND;
                /* DATA_EMISSIONE_ANNULLAMENTO */
                /* CODICE_SISTEMA */
                /* DATA_ORA_EMISSIONE */
                /* CODICE_FISCALE_TITOLARE */
                /* CODICE_FISCALE_ORGANIZZATORE */
                /* TITOLO_ABBONAMENTO: T = 1, A = 2 */
                /* DATA_EVENTO */
                /* CODICE_LOCALE */
                /* ORA_EVENTO */
                /* TIPO_EVENTO */
                /* TITOLO_EVENTO */
                /* TITOLO_IVA_PREASSOLTA: N = 1, F = 2, B = 3 */
                /* ORDINE DI POSTO */
                /* TIPO_TITOLO */
                /* ANNULLATO: vuoto = 1, A = 2 */
                /* CODICE_ABBONAMENTO */
                /* NUM_PROG_ABBONAMENTO */
                /* IDVEND */
        ELSE
                OPEN logCUR FOR
                SELECT * FROM 
                (
                        SELECT T_LOG.* FROM WTIC.VR_LOGTRANS T_LOG WHERE T_LOG.CODICE_SISTEMA = cCodiceSistema AND 
                        TRUNC(T_LOG.DATAORA_EMISSIONE_ANNULLAMENTO) >= TRUNC(dInizio) AND TRUNC(T_LOG.DATAORA_EMISSIONE_ANNULLAMENTO) <= TRUNC(dTermin)
                        AND T_LOG.LOG_ID >= nMIN_LOG_ID
                        UNION ALL
                        SELECT T_LOG.* FROM WTIC.VR_LOGTRANS_ARCHIVE T_LOG WHERE T_LOG.CODICE_SISTEMA = cCodiceSistema AND 
                        TRUNC(T_LOG.DATAORA_EMISSIONE_ANNULLAMENTO) >= TRUNC(dInizio) AND TRUNC(T_LOG.DATAORA_EMISSIONE_ANNULLAMENTO) <= TRUNC(dTermin)
                        AND T_LOG.LOG_ID >= nMIN_LOG_ID
                )
                ORDER BY DATA_EMISSIONE_ANNULLAMENTO, CODICE_SISTEMA, DATAORA_EMISSIONE_ANNULLAMENTO, CODICE_FISCALE_TITOLARE, CODICE_FISCALE_ORGANIZZATORE, DECODE(TITOLO_ABBONAMENTO, 'T', 1, 2),
                         DECODE(TITOLO_ABBONAMENTO, 'T', DATA_EVENTO, NULL), DECODE(TITOLO_ABBONAMENTO, 'T', CODICE_LOCALE, RPAD(' ',13,' ')), DECODE(TITOLO_ABBONAMENTO, 'T', ORA_EVENTO, RPAD(' ', 4,' ')),
                         DECODE(TITOLO_ABBONAMENTO, 'T', TIPO_EVENTO, RPAD(' ', 2,' ')), DECODE(TITOLO_ABBONAMENTO, 'T', TITOLO_EVENTO, RPAD(' ',40,' ')), DECODE(TITOLO_IVA_PREASSOLTA, 'N', 1, 'F', 2, 'B', 3),
                         ORDINE_DI_POSTO, TIPO_TITOLO, DECODE(ANNULLATO, ' ', 1, 2), DECODE(TITOLO_ABBONAMENTO, 'A', CODICE_ABBONAMENTO, RPAD(' ',8,' ')), DECODE(TITOLO_ABBONAMENTO, 'A', NUM_PROG_ABBONAMENTO, 0), IDVEND;
        END IF;


END;