^G:\USERS\ANDREA\DOCUMENTS\VISUAL STUDIO 2010\PROJECTS\RIEPILOGHI\RIEPILOGHI\TESTXMLRIEPILOGHI\FRMCAMPITRANSAZIONI.RESX|G:\USERS\ANDREA\DOCUMENTS\VISUAL STUDIO 2010\PROJECTS\RIEPILOGHI\RIEPILOGHI\TESTXMLRIEPILOGHI\FRMTESTRIEPILOGHI.RESX|G:\USERS\ANDREA\DOCUMENTS\VISUAL STUDIO 2010\PROJECTS\RIEPILOGHI\RIEPILOGHI\TESTXMLRIEPILOGHI\PROPERTIES\RESOURCES.RESX
G:\USERS\ANDREA\DOCUMENTS\VISUAL STUDIO 2010\PROJECTS\RIEPILOGHI\RIEPILOGHI\TESTXMLRIEPILOGHI\OBJ\RELEASE\TESTXMLRIEPILOGHI.FRMCAMPITRANSAZIONI.RESOURCES
G:\USERS\ANDREA\DOCUMENTS\VISUAL STUDIO 2010\PROJECTS\RIEPILOGHI\RIEPILOGHI\TESTXMLRIEPILOGHI\OBJ\RELEASE\TESTXMLRIEPILOGHI.FRMTESTRIEPILOGHI.RESOURCES
G:\USERS\ANDREA\DOCUMENTS\VISUAL STUDIO 2010\PROJECTS\RIEPILOGHI\RIEPILOGHI\TESTXMLRIEPILOGHI\OBJ\RELEASE\TESTXMLRIEPILOGHI.PROPERTIES.RESOURCES.RESOURCES
^G:\USERS\ANDREA\DOCUMENTS\VISUAL STUDIO 2010\PROJECTS\RIEPILOGHI\RIEPILOGHI\TESTXMLRIEPILOGHI\FRMTESTRIEPILOGHI.RESX
G:\USERS\ANDREA\DOCUMENTS\VISUAL STUDIO 2010\PROJECTS\RIEPILOGHI\RIEPILOGHI\TESTXMLRIEPILOGHI\OBJ\RELEASE\TESTXMLRIEPILOGHI.FRMTESTRIEPILOGHI.RESOURCES
