^G:\USERS\ANDREA\DOCUMENTS\VISUAL STUDIO 2010\PROJECTS\RIEPILOGHI\MASTERIZZAZIONE\BURNMEDIA_SRC\MAINFORM.RESX|G:\USERS\ANDREA\DOCUMENTS\VISUAL STUDIO 2010\PROJECTS\RIEPILOGHI\MASTERIZZAZIONE\BURNMEDIA_SRC\PROPERTIES\RESOURCES.RESX
G:\USERS\ANDREA\DOCUMENTS\VISUAL STUDIO 2010\PROJECTS\RIEPILOGHI\MASTERIZZAZIONE\BURNMEDIA_SRC\OBJ\DEBUG\BURNMEDIA.MAINFORM.RESOURCES
G:\USERS\ANDREA\DOCUMENTS\VISUAL STUDIO 2010\PROJECTS\RIEPILOGHI\MASTERIZZAZIONE\BURNMEDIA_SRC\OBJ\DEBUG\BURNMEDIA.PROPERTIES.RESOURCES.RESOURCES
^G:\USERS\ANDREA\DOCUMENTS\VISUAL STUDIO 2010\PROJECTS\RIEPILOGHI\MASTERIZZAZIONE\BURNMEDIA_SRC\MAINFORM.RESX
G:\USERS\ANDREA\DOCUMENTS\VISUAL STUDIO 2010\PROJECTS\RIEPILOGHI\MASTERIZZAZIONE\BURNMEDIA_SRC\OBJ\DEBUG\BURNMEDIA.MAINFORM.RESOURCES
