client 4 avvio
client 4 CASSA 176 WIN-7NGEN9MF848
client 4 OPERATORE 101 crea crea crea
client 4 check server fiscale
client 4 server fiscale OK
client 4 Richiesta 2 POSTI
client 4 trovati 0 POSTI di 2
client 4 FINE 0 sigilli
